…
[<img align ="center" src="https://github.com/STAT545-UBC-students/hw04-rasiimwe/blob/master/plugins/inner-join.gif" width="400" height="300"/>](https://github.com/STAT545-UBC-students/hw04-rasiimwe/blob/master/plugins/inner-join.gif)

**Basic syntax:** `inner_join(x, y): keep only matching`

**Join Function:** inner\_join(x, y): Return all rows from x where there are matching values in y, and all columns from x and y. If there are multiple matches between x and y, all combination of the matches are returned. This is a mutating join.

#### inner\_join on presidents & parties

``` r
inner_join(presidents, parties)
```

    ## Joining, by = "party"

    ## # A tibble: 45 x 6
    ##    name      previous_office         party  in_office out_office vice     
    ##    <chr>     <chr>                   <chr>      <dbl> <chr>      <chr>    
    ##  1 Donald T… Chairman of The Trump … Repub…      2007 Incumbent  Mike Pen…
    ##  2 Donald T… Chairman of The Trump … Repub…      2007 Incumbent  Dick Che…
    ##  3 Donald T… Chairman of The Trump … Repub…      2007 Incumbent  Dan Quay…
    ##  4 Donald T… Chairman of The Trump … Repub…      2007 Incumbent  George H…
    ##  5 Donald T… Chairman of The Trump … Repub…      2007 Incumbent  Nelson R…
    ##  6 Donald T… Chairman of The Trump … Repub…      2007 Incumbent  Gerald F…
    ##  7 Barack O… U.S. Senator from Illi… Democ…      2009 2017       Joe Biden
    ##  8 Barack O… U.S. Senator from Illi… Democ…      2009 2017       Al Gore  
    ##  9 Barack O… U.S. Senator from Illi… Democ…      2009 2017       Walter M…
    ## 10 George W… Governor of Texas       Repub…      2001 2009       Mike Pen…
    ## # ... with 35 more rows
…
### Left Join

[<img align ="center" src="https://github.com/STAT545-UBC-students/hw04-rasiimwe/blob/master/plugins/left-join.gif" width="400" height="300"/>](https://github.com/STAT545-UBC-students/hw04-rasiimwe/blob/master/plugins/left-join.gif)

**Basic syntax:** `left_join(x, y): keep all x, drop unmatched y` **Join Function:** left\_join(x, y): Return all rows from x, and all columns from x and y. If there are multiple matches between x and y, all combination of the matches are returned. This is a mutating join.

#### left\_join on presidents & parties

``` r
left_join(presidents, parties)
```

    ## Joining, by = "party"

    ## # A tibble: 45 x 6
    ##    name      previous_office         party  in_office out_office vice     
    ##    <chr>     <chr>                   <chr>      <dbl> <chr>      <chr>    
    ##  1 Donald T… Chairman of The Trump … Repub…      2007 Incumbent  Mike Pen…
    ##  2 Donald T… Chairman of The Trump … Repub…      2007 Incumbent  Dick Che…
    ##  3 Donald T… Chairman of The Trump … Repub…      2007 Incumbent  Dan Quay…
    ##  4 Donald T… Chairman of The Trump … Repub…      2007 Incumbent  George H…
    ##  5 Donald T… Chairman of The Trump … Repub…      2007 Incumbent  Nelson R…
    ##  6 Donald T… Chairman of The Trump … Repub…      2007 Incumbent  Gerald F…
    ##  7 Barack O… U.S. Senator from Illi… Democ…      2009 2017       Joe Biden
    ##  8 Barack O… U.S. Senator from Illi… Democ…      2009 2017       Al Gore  
    ##  9 Barack O… U.S. Senator from Illi… Democ…      2009 2017       Walter M…
    ## 10 George W… Governor of Texas       Repub…      2001 2009       Mike Pen…
    ## # ... with 35 more rows
…
    ## # A tibble: 0 x 5
    ## # ... with 5 variables: name <chr>, previous_office <chr>, party <chr>,
    ## #   in_office <dbl>, out_office <chr>

inner\_join(x, y): Return all rows from x where there are matching values in y, and all columns from x and y. If there are multiple matches between x and y, all combination of the matches are returned. This is a mutating join.

#### inner\_join on presidents & parties

``` r
inner_join(presidents, parties)
```

    ## Joining, by = "party"

    ## # A tibble: 45 x 6
    ##    name      previous_office         party  in_office out_office vice     
    ##    <chr>     <chr>                   <chr>      <dbl> <chr>      <chr>    
    ##  1 Donald T… Chairman of The Trump … Repub…      2007 Incumbent  Mike Pen…
    ##  2 Donald T… Chairman of The Trump … Repub…      2007 Incumbent  Dick Che…
    ##  3 Donald T… Chairman of The Trump … Repub…      2007 Incumbent  Dan Quay…
    ##  4 Donald T… Chairman of The Trump … Repub…      2007 Incumbent  George H…
    ##  5 Donald T… Chairman of The Trump … Repub…      2007 Incumbent  Nelson R…
    ##  6 Donald T… Chairman of The Trump … Repub…      2007 Incumbent  Gerald F…
    ##  7 Barack O… U.S. Senator from Illi… Democ…      2009 2017       Joe Biden
    ##  8 Barack O… U.S. Senator from Illi… Democ…      2009 2017       Al Gore  
    ##  9 Barack O… U.S. Senator from Illi… Democ…      2009 2017       Walter M…
    ## 10 George W… Governor of Texas       Repub…      2001 2009       Mike Pen…
    ## # ... with 35 more rows
…
### Left Join

[<img align ="center" src="https://github.com/STAT545-UBC-students/hw04-rasiimwe/blob/master/plugins/left-join.gif" width="400" height="300"/>](https://github.com/STAT545-UBC-students/hw04-rasiimwe/blob/master/plugins/left-join.gif)

left\_join(x, y): Return all rows from x, and all columns from x and y. If there are multiple matches between x and y, all combination of the matches are returned. This is a mutating join.

#### left\_join on presidents & parties

``` r
left_join(presidents, parties)
```

    ## Joining, by = "party"

    ## # A tibble: 45 x 6
    ##    name      previous_office         party  in_office out_office vice     
    ##    <chr>     <chr>                   <chr>      <dbl> <chr>      <chr>    
    ##  1 Donald T… Chairman of The Trump … Repub…      2007 Incumbent  Mike Pen…
    ##  2 Donald T… Chairman of The Trump … Repub…      2007 Incumbent  Dick Che…
    ##  3 Donald T… Chairman of The Trump … Repub…      2007 Incumbent  Dan Quay…
    ##  4 Donald T… Chairman of The Trump … Repub…      2007 Incumbent  George H…
    ##  5 Donald T… Chairman of The Trump … Repub…      2007 Incumbent  Nelson R…
    ##  6 Donald T… Chairman of The Trump … Repub…      2007 Incumbent  Gerald F…
    ##  7 Barack O… U.S. Senator from Illi… Democ…      2009 2017       Joe Biden
    ##  8 Barack O… U.S. Senator from Illi… Democ…      2009 2017       Al Gore  
    ##  9 Barack O… U.S. Senator from Illi… Democ…      2009 2017       Walter M…
    ## 10 George W… Governor of Texas       Repub…      2001 2009       Mike Pen…
    ## # ... with 35 more rows
…
### Full Join

[<img align ="center" src="https://github.com/STAT545-UBC-students/hw04-rasiimwe/blob/master/plugins/full-join.gif" width="400" height="300"/>](https://github.com/STAT545-UBC-students/hw04-rasiimwe/blob/master/plugins/full-join.gif)

full\_join(x, y): Return all rows and all columns from both x and y. Where there are not matching values, returns NA for the one missing. This is a mutating join.

#### full\_join on presidents & parties

``` r
full_join(presidents, parties)
```

    ## Joining, by = "party"

    ## # A tibble: 45 x 6
    ##    name      previous_office         party  in_office out_office vice     
    ##    <chr>     <chr>                   <chr>      <dbl> <chr>      <chr>    
    ##  1 Donald T… Chairman of The Trump … Repub…      2007 Incumbent  Mike Pen…
    ##  2 Donald T… Chairman of The Trump … Repub…      2007 Incumbent  Dick Che…
    ##  3 Donald T… Chairman of The Trump … Repub…      2007 Incumbent  Dan Quay…
    ##  4 Donald T… Chairman of The Trump … Repub…      2007 Incumbent  George H…
    ##  5 Donald T… Chairman of The Trump … Repub…      2007 Incumbent  Nelson R…
    ##  6 Donald T… Chairman of The Trump … Repub…      2007 Incumbent  Gerald F…
    ##  7 Barack O… U.S. Senator from Illi… Democ…      2009 2017       Joe Biden
    ##  8 Barack O… U.S. Senator from Illi… Democ…      2009 2017       Al Gore  
    ##  9 Barack O… U.S. Senator from Illi… Democ…      2009 2017       Walter M…
    ## 10 George W… Governor of Texas       Repub…      2001 2009       Mike Pen…
    ## # ... with 35 more rows
…
